
338.105
446.267
491.004
410.496
449.691
441.014
439.409
574.930
400.171
481.642
497.518
540.933
516.760
382.848
425.094
519.556
546.579
323.192
511.515
595.384
660.095
545.883
656.489
356.950
540.494
467.824
459.549
513.107
594.905
476.797
345.860
223.045
