traceroute to lemonde.fr (93.184.220.20), 30 hops max, 60 byte packets
 1  155.246.207.2 (155.246.207.2)  3.064 ms  3.041 ms  3.232 ms
 2  gwa.cc.stevens.edu (155.246.151.37)  3.221 ms  3.211 ms  6.180 ms
 3  454a0465.cst.lightpath.net (69.74.4.101)  311.610 ms  311.635 ms  311.627 ms
 4  18267506.cst.lightpath.net (24.38.117.6)  109.354 ms  109.409 ms  109.363 ms
 5  41333f95.cst.lightpath.net (65.51.63.149)  109.386 ms  109.391 ms  109.363 ms
 6  451be0a1.cst.lightpath.net (65.19.113.161)  112.384 ms  109.356 ms  109.362 ms
 7  64.15.3.225 (64.15.3.225)  95.626 ms  92.966 ms  95.582 ms
 8  64.15.2.74 (64.15.2.74)  95.584 ms  98.191 ms  101.236 ms
 9  64.15.0.196 (64.15.0.196)  104.546 ms  106.840 ms  104.474 ms
10  * * *
11  pos0-3-0-0.londra17.lon.seabone.net (195.22.216.167)  175.927 ms  172.942 ms  170.241 ms
12  149.3.183.33 (149.3.183.33)  170.117 ms  170.162 ms  150.526 ms
13  93.184.220.20 (93.184.220.20)  341.488 ms  338.176 ms  338.105 ms
traceroute to lemonde.fr (93.184.220.20), 30 hops max, 60 byte packets
 1  155.246.207.2 (155.246.207.2)  6.156 ms  6.099 ms  6.080 ms
 2  gwa.cc.stevens.edu (155.246.151.37)  5.885 ms  5.906 ms  5.880 ms
 3  454a0465.cst.lightpath.net (69.74.4.101)  389.033 ms  389.085 ms  389.077 ms
 4  18267506.cst.lightpath.net (24.38.117.6)  388.993 ms  389.025 ms  388.974 ms
 5  41333f95.cst.lightpath.net (65.51.63.149)  388.979 ms  388.961 ms  395.820 ms
 6  451be0a1.cst.lightpath.net (65.19.113.161)  395.860 ms  403.374 ms  403.337 ms
 7  64.15.3.229 (64.15.3.229)  394.582 ms  394.551 ms 64.15.3.221 (64.15.3.221)  394.420 ms
 8  64.15.2.94 (64.15.2.94)  397.086 ms 64.15.2.74 (64.15.2.74)  370.933 ms 64.15.2.78 (64.15.2.78)  370.799 ms
 9  64.15.0.196 (64.15.0.196)  367.842 ms  370.969 ms  370.977 ms
10  * * *
11  pos0-3-0-0.londra17.lon.seabone.net (195.22.216.167)  440.001 ms  439.935 ms  439.852 ms
12  149.3.183.33 (149.3.183.33)  439.764 ms  426.465 ms  426.370 ms
13  93.184.220.20 (93.184.220.20)  429.662 ms  431.031 ms  446.267 ms
traceroute to lemonde.fr (93.184.220.20), 30 hops max, 60 byte packets
 1  155.246.207.2 (155.246.207.2)  3.049 ms  3.015 ms  2.997 ms
 2  gwa.cc.stevens.edu (155.246.151.37)  2.991 ms  5.734 ms  5.766 ms
 3  454a0465.cst.lightpath.net (69.74.4.101)  9.752 ms  9.766 ms  9.757 ms
 4  18267506.cst.lightpath.net (24.38.117.6)  9.748 ms  9.738 ms  9.726 ms
 5  41333f95.cst.lightpath.net (65.51.63.149)  9.715 ms  9.703 ms  9.690 ms
 6  451be0a1.cst.lightpath.net (65.19.113.161)  13.367 ms  7.035 ms  7.025 ms
 7  64.15.3.225 (64.15.3.225)  48.317 ms 64.15.3.221 (64.15.3.221)  48.218 ms  48.266 ms
 8  64.15.2.78 (64.15.2.78)  48.245 ms  48.229 ms 64.15.2.74 (64.15.2.74)  50.731 ms
 9  64.15.0.196 (64.15.0.196)  55.707 ms  55.651 ms  55.650 ms
10  * * *
11  pos0-3-0-0.londra17.lon.seabone.net (195.22.216.167)  121.806 ms  121.797 ms  121.670 ms
12  149.3.183.33 (149.3.183.33)  121.595 ms  154.013 ms  154.002 ms
13  93.184.220.20 (93.184.220.20)  490.992 ms  491.014 ms  491.004 ms
traceroute to lemonde.fr (93.184.220.20), 30 hops max, 60 byte packets
 1  155.246.207.2 (155.246.207.2)  3.112 ms  3.072 ms  3.061 ms
 2  gwa.cc.stevens.edu (155.246.151.37)  3.050 ms  3.037 ms  3.024 ms
 3  454a0465.cst.lightpath.net (69.74.4.101)  331.849 ms  331.880 ms  331.879 ms
 4  18267506.cst.lightpath.net (24.38.117.6)  331.854 ms  331.851 ms  334.851 ms
 5  41333f95.cst.lightpath.net (65.51.63.149)  342.516 ms  342.532 ms  342.523 ms
 6  451be0a1.cst.lightpath.net (65.19.113.161)  342.520 ms  337.117 ms  337.086 ms
 7  64.15.3.221 (64.15.3.221)  340.457 ms 64.15.3.229 (64.15.3.229)  340.496 ms  340.467 ms
 8  64.15.3.132 (64.15.3.132)  343.941 ms 64.15.2.78 (64.15.2.78)  244.931 ms 64.15.2.46 (64.15.2.46)  244.818 ms
 9  64.15.0.196 (64.15.0.196)  252.290 ms  252.316 ms  252.300 ms
10  * * *
11  pos0-3-0-0.londra17.lon.seabone.net (195.22.216.167)  318.045 ms  318.030 ms  317.906 ms
12  149.3.183.33 (149.3.183.33)  317.818 ms  313.697 ms  301.301 ms
13  93.184.220.20 (93.184.220.20)  379.490 ms  379.503 ms  410.496 ms
traceroute to lemonde.fr (93.184.220.20), 30 hops max, 60 byte packets
 1  155.246.207.2 (155.246.207.2)  5.150 ms  5.123 ms  5.105 ms
 2  gwa.cc.stevens.edu (155.246.151.37)  5.074 ms  5.041 ms  5.017 ms
 3  454a0465.cst.lightpath.net (69.74.4.101)  161.032 ms  161.053 ms  161.040 ms
 4  18267506.cst.lightpath.net (24.38.117.6)  161.020 ms  160.985 ms  160.962 ms
 5  41333f95.cst.lightpath.net (65.51.63.149)  165.866 ms  165.820 ms  169.248 ms
 6  451be0a1.cst.lightpath.net (65.19.113.161)  169.304 ms  202.261 ms  198.513 ms
 7  64.15.3.221 (64.15.3.221)  198.444 ms 64.15.3.229 (64.15.3.229)  198.368 ms  198.358 ms
 8  64.15.2.46 (64.15.2.46)  202.049 ms 64.15.2.94 (64.15.2.94)  356.795 ms 64.15.2.78 (64.15.2.78)  356.801 ms
 9  64.15.0.196 (64.15.0.196)  360.664 ms  360.695 ms  360.635 ms
10  * * *
11  pos0-3-0-0.londra17.lon.seabone.net (195.22.216.167)  449.442 ms  449.424 ms  434.876 ms
12  149.3.183.33 (149.3.183.33)  434.706 ms  434.719 ms  434.713 ms
13  93.184.220.20 (93.184.220.20)  455.250 ms  449.691 ms *
traceroute to lemonde.fr (93.184.220.20), 30 hops max, 60 byte packets
 1  155.246.207.2 (155.246.207.2)  3.020 ms  2.991 ms  2.962 ms
 2  gwa.cc.stevens.edu (155.246.151.37)  2.945 ms  2.923 ms  5.580 ms
 3  454a0465.cst.lightpath.net (69.74.4.101)  69.248 ms  69.258 ms  69.260 ms
 4  18267506.cst.lightpath.net (24.38.117.6)  69.193 ms  69.172 ms  69.152 ms
 5  41333f95.cst.lightpath.net (65.51.63.149)  72.139 ms  72.129 ms  72.101 ms
 6  451be0a1.cst.lightpath.net (65.19.113.161)  72.039 ms  60.740 ms  59.580 ms
 7  64.15.3.221 (64.15.3.221)  57.045 ms 64.15.3.225 (64.15.3.225)  59.556 ms 64.15.3.221 (64.15.3.221)  59.494 ms
 8  64.15.2.94 (64.15.2.94)  59.497 ms 64.15.3.132 (64.15.3.132)  66.390 ms  66.352 ms
 9  64.15.0.196 (64.15.0.196)  67.118 ms  72.869 ms  72.809 ms
10  * * *
11  pos0-3-0-0.londra17.lon.seabone.net (195.22.216.167)  142.508 ms  142.508 ms  140.659 ms
12  149.3.183.33 (149.3.183.33)  138.009 ms  141.437 ms  141.413 ms
13  93.184.220.20 (93.184.220.20)  450.829 ms  450.711 ms  441.014 ms
traceroute to lemonde.fr (93.184.220.20), 30 hops max, 60 byte packets
 1  155.246.207.2 (155.246.207.2)  5.231 ms  5.248 ms  5.245 ms
 2  gwa.cc.stevens.edu (155.246.151.37)  5.241 ms  5.235 ms  5.228 ms
 3  454a0465.cst.lightpath.net (69.74.4.101)  328.653 ms  328.681 ms  334.459 ms
 4  18267506.cst.lightpath.net (24.38.117.6)  334.491 ms  334.491 ms  334.489 ms
 5  41333f95.cst.lightpath.net (65.51.63.149)  337.654 ms  345.084 ms  345.084 ms
 6  451be0a1.cst.lightpath.net (65.19.113.161)  348.090 ms  337.614 ms  337.596 ms
 7  64.15.3.225 (64.15.3.225)  334.182 ms  334.151 ms 64.15.3.221 (64.15.3.221)  334.046 ms
 8  64.15.2.74 (64.15.2.74)  336.967 ms * 64.15.2.78 (64.15.2.78)  327.351 ms
 9  64.15.0.196 (64.15.0.196)  331.195 ms  327.644 ms  327.595 ms
10  * * *
11  pos0-3-0-0.londra17.lon.seabone.net (195.22.216.167)  393.455 ms  392.979 ms  389.586 ms
12  149.3.183.33 (149.3.183.33)  386.361 ms  382.889 ms  382.870 ms
13  93.184.220.20 (93.184.220.20)  461.744 ms  458.335 ms  439.409 ms
traceroute to lemonde.fr (93.184.220.20), 30 hops max, 60 byte packets
 1  155.246.207.2 (155.246.207.2)  3.166 ms  3.144 ms  3.128 ms
 2  gwa.cc.stevens.edu (155.246.151.37)  3.123 ms  5.724 ms  5.721 ms
 3  454a0465.cst.lightpath.net (69.74.4.101)  143.006 ms  143.035 ms  143.029 ms
 4  18267506.cst.lightpath.net (24.38.117.6)  150.045 ms  150.080 ms  150.073 ms
 5  41333f95.cst.lightpath.net (65.51.63.149)  150.064 ms  152.922 ms  152.938 ms
 6  451be0a1.cst.lightpath.net (65.19.113.161)  152.899 ms  148.764 ms  148.725 ms
 7  64.15.3.229 (64.15.3.229)  148.690 ms 64.15.3.221 (64.15.3.221)  148.636 ms  148.503 ms
 8  64.15.2.74 (64.15.2.74)  148.593 ms  151.258 ms  151.231 ms
 9  64.15.0.196 (64.15.0.196)  154.652 ms  149.369 ms  149.274 ms
10  * * *
11  pos0-3-0-0.londra17.lon.seabone.net (195.22.216.167)  213.780 ms  216.980 ms  212.251 ms
12  149.3.183.33 (149.3.183.33)  212.102 ms  211.632 ms  214.611 ms
13  93.184.220.20 (93.184.220.20)  589.326 ms  589.257 ms  574.930 ms
traceroute to lemonde.fr (93.184.220.20), 30 hops max, 60 byte packets
 1  155.246.207.2 (155.246.207.2)  3.036 ms  3.012 ms  3.097 ms
 2  gwa.cc.stevens.edu (155.246.151.37)  3.091 ms  3.082 ms  6.020 ms
 3  454a0465.cst.lightpath.net (69.74.4.101)  149.095 ms  149.173 ms  149.215 ms
 4  18267506.cst.lightpath.net (24.38.117.6)  149.109 ms  149.138 ms  149.141 ms
 5  41333f95.cst.lightpath.net (65.51.63.149)  149.163 ms  149.182 ms  149.126 ms
 6  451be0a1.cst.lightpath.net (65.19.113.161)  151.985 ms  168.225 ms  159.663 ms
 7  64.15.3.221 (64.15.3.221)  162.202 ms 64.15.3.225 (64.15.3.225)  162.118 ms 64.15.3.229 (64.15.3.229)  159.596 ms
 8  64.15.2.74 (64.15.2.74)  162.191 ms  129.621 ms 64.15.2.78 (64.15.2.78)  129.501 ms
 9  64.15.0.196 (64.15.0.196)  133.393 ms  133.354 ms  128.789 ms
10  * * *
11  pos0-3-0-0.londra17.lon.seabone.net (195.22.216.167)  200.078 ms  200.014 ms  193.638 ms
12  149.3.183.33 (149.3.183.33)  190.322 ms  193.458 ms  188.174 ms
13  93.184.220.20 (93.184.220.20)  380.025 ms  379.354 ms  400.171 ms
traceroute to lemonde.fr (93.184.220.20), 30 hops max, 60 byte packets
 1  155.246.207.2 (155.246.207.2)  3.112 ms  3.074 ms  3.042 ms
 2  gwa.cc.stevens.edu (155.246.151.37)  3.031 ms  3.018 ms  3.003 ms
 3  454a0465.cst.lightpath.net (69.74.4.101)  124.202 ms  124.236 ms  124.238 ms
 4  18267506.cst.lightpath.net (24.38.117.6)  127.126 ms  127.147 ms  127.138 ms
 5  41333f95.cst.lightpath.net (65.51.63.149)  127.138 ms  130.737 ms  130.733 ms
 6  451be0a1.cst.lightpath.net (65.19.113.161)  133.126 ms  119.701 ms  119.465 ms
 7  64.15.3.221 (64.15.3.221)  119.420 ms 64.15.3.225 (64.15.3.225)  122.341 ms  122.374 ms
 8  64.15.2.94 (64.15.2.94)  124.879 ms 64.15.2.74 (64.15.2.74)  88.133 ms  88.020 ms
 9  64.15.0.196 (64.15.0.196)  86.856 ms  86.793 ms  86.731 ms
10  * * *
11  pos0-3-0-0.londra17.lon.seabone.net (195.22.216.167)  156.160 ms  156.048 ms  156.087 ms
12  149.3.183.33 (149.3.183.33)  146.783 ms  146.698 ms  146.691 ms
13  93.184.220.20 (93.184.220.20)  479.149 ms  481.642 ms *
traceroute to lemonde.fr (93.184.220.20), 30 hops max, 60 byte packets
 1  155.246.207.2 (155.246.207.2)  3.021 ms  3.001 ms  2.987 ms
 2  gwa.cc.stevens.edu (155.246.151.37)  2.980 ms  2.970 ms  5.545 ms
 3  454a0465.cst.lightpath.net (69.74.4.101)  375.023 ms  378.234 ms  378.221 ms
 4  18267506.cst.lightpath.net (24.38.117.6)  378.139 ms  378.145 ms  378.134 ms
 5  41333f95.cst.lightpath.net (65.51.63.149)  378.123 ms  378.111 ms  378.098 ms
 6  451be0a1.cst.lightpath.net (65.19.113.161)  378.098 ms  393.634 ms  390.428 ms
 7  64.15.3.229 (64.15.3.229)  390.403 ms * *
 8  * 64.15.2.78 (64.15.2.78)  354.253 ms 64.15.2.74 (64.15.2.74)  349.832 ms
 9  64.15.0.196 (64.15.0.196)  353.022 ms  355.697 ms  353.001 ms
10  * * *
11  pos0-3-0-0.londra17.lon.seabone.net (195.22.216.167)  425.093 ms  425.101 ms  422.649 ms
12  149.3.183.33 (149.3.183.33)  422.579 ms  422.522 ms  395.993 ms
13  93.184.220.20 (93.184.220.20)  497.459 ms  497.585 ms  497.518 ms
traceroute to lemonde.fr (93.184.220.20), 30 hops max, 60 byte packets
 1  155.246.207.2 (155.246.207.2)  19.026 ms  19.018 ms  19.007 ms
 2  gwa.cc.stevens.edu (155.246.151.37)  22.298 ms  22.307 ms  22.296 ms
 3  454a0465.cst.lightpath.net (69.74.4.101)  88.781 ms  88.816 ms  88.817 ms
 4  18267506.cst.lightpath.net (24.38.117.6)  88.765 ms  88.759 ms  88.761 ms
 5  41333f95.cst.lightpath.net (65.51.63.149)  88.763 ms  88.757 ms  88.749 ms
 6  451be0a1.cst.lightpath.net (65.19.113.161)  88.741 ms  66.181 ms  66.136 ms
 7  64.15.3.221 (64.15.3.221)  66.138 ms  62.851 ms  62.802 ms
 8  64.15.2.74 (64.15.2.74)  65.722 ms 64.15.3.132 (64.15.3.132)  87.221 ms  87.207 ms
 9  64.15.0.196 (64.15.0.196)  89.894 ms  89.842 ms  89.835 ms
10  * * *
11  pos0-3-0-0.londra17.lon.seabone.net (195.22.216.167)  158.175 ms  155.390 ms  155.380 ms
12  149.3.183.33 (149.3.183.33)  155.306 ms  158.011 ms  158.024 ms
13  93.184.220.20 (93.184.220.20)  548.138 ms  555.955 ms  540.933 ms
traceroute to lemonde.fr (93.184.220.20), 30 hops max, 60 byte packets
 1  155.246.207.2 (155.246.207.2)  3.144 ms  3.111 ms  3.103 ms
 2  gwa.cc.stevens.edu (155.246.151.37)  3.085 ms  6.254 ms  6.256 ms
 3  454a0465.cst.lightpath.net (69.74.4.101)  63.161 ms  63.150 ms  63.138 ms
 4  18267506.cst.lightpath.net (24.38.117.6)  63.051 ms * *
 5  41333f95.cst.lightpath.net (65.51.63.149)  63.061 ms  63.048 ms  66.036 ms
 6  451be0a1.cst.lightpath.net (65.19.113.161)  66.033 ms  60.129 ms  67.899 ms
 7  64.15.3.221 (64.15.3.221)  67.890 ms 64.15.3.229 (64.15.3.229)  67.880 ms 64.15.3.221 (64.15.3.221)  67.701 ms
 8  64.15.2.74 (64.15.2.74)  67.676 ms 64.15.2.94 (64.15.2.94)  75.175 ms 64.15.2.74 (64.15.2.74)  75.155 ms
 9  64.15.0.196 (64.15.0.196)  74.944 ms  77.516 ms  74.895 ms
10  * * *
11  pos0-3-0-0.londra17.lon.seabone.net (195.22.216.167)  135.243 ms  130.414 ms  130.344 ms
12  149.3.183.33 (149.3.183.33)  127.325 ms  130.147 ms  130.202 ms
13  93.184.220.20 (93.184.220.20)  516.787 ms  516.760 ms *
traceroute to lemonde.fr (93.184.220.20), 30 hops max, 60 byte packets
 1  155.246.207.2 (155.246.207.2)  3.132 ms  3.148 ms  3.142 ms
 2  gwa.cc.stevens.edu (155.246.151.37)  3.136 ms  3.129 ms  3.123 ms
 3  454a0465.cst.lightpath.net (69.74.4.101)  299.693 ms  299.720 ms  299.716 ms
 4  18267506.cst.lightpath.net (24.38.117.6)  302.740 ms  302.750 ms  302.747 ms
 5  41333f95.cst.lightpath.net (65.51.63.149)  302.764 ms  302.760 ms  302.753 ms
 6  451be0a1.cst.lightpath.net (65.19.113.161)  302.748 ms  299.760 ms  305.022 ms
 7  64.15.3.225 (64.15.3.225)  304.989 ms 64.15.3.221 (64.15.3.221)  304.928 ms 64.15.3.229 (64.15.3.229)  304.865 ms
 8  64.15.2.46 (64.15.2.46)  304.907 ms * 64.15.2.74 (64.15.2.74)  395.858 ms
 9  64.15.0.196 (64.15.0.196)  399.059 ms  398.391 ms  398.286 ms
10  * * *
11  pos0-3-0-0.londra17.lon.seabone.net (195.22.216.167)  467.083 ms  466.995 ms  467.360 ms
12  149.3.183.33 (149.3.183.33)  462.152 ms  449.586 ms  449.518 ms
13  93.184.220.20 (93.184.220.20)  449.479 ms  449.407 ms  382.848 ms
traceroute to lemonde.fr (93.184.220.20), 30 hops max, 60 byte packets
 1  155.246.207.2 (155.246.207.2)  3.184 ms  3.171 ms  3.168 ms
 2  gwa.cc.stevens.edu (155.246.151.37)  13.749 ms  13.761 ms  13.749 ms
 3  454a0465.cst.lightpath.net (69.74.4.101)  316.955 ms  316.975 ms  316.970 ms
 4  18267506.cst.lightpath.net (24.38.117.6)  316.959 ms  316.949 ms  319.855 ms
 5  41333f95.cst.lightpath.net (65.51.63.149)  319.859 ms  322.812 ms  322.769 ms
 6  451be0a1.cst.lightpath.net (65.19.113.161)  322.803 ms  319.940 ms  319.942 ms
 7  64.15.3.229 (64.15.3.229)  319.753 ms 64.15.3.221 (64.15.3.221)  319.767 ms 64.15.3.229 (64.15.3.229)  319.730 ms
 8  64.15.2.46 (64.15.2.46)  319.765 ms  332.380 ms 64.15.3.132 (64.15.3.132)  332.375 ms
 9  64.15.0.196 (64.15.0.196)  378.197 ms  378.135 ms  378.121 ms
10  * * *
11  pos0-3-0-0.londra17.lon.seabone.net (195.22.216.167)  449.523 ms  449.554 ms  448.536 ms
12  149.3.183.33 (149.3.183.33)  448.445 ms * *
13  * 93.184.220.20 (93.184.220.20)  557.956 ms  425.094 ms
traceroute to lemonde.fr (93.184.220.20), 30 hops max, 60 byte packets
 1  155.246.207.2 (155.246.207.2)  3.135 ms  5.218 ms  5.219 ms
 2  gwa.cc.stevens.edu (155.246.151.37)  5.209 ms  5.194 ms  5.177 ms
 3  454a0465.cst.lightpath.net (69.74.4.101)  292.042 ms  292.060 ms  292.047 ms
 4  18267506.cst.lightpath.net (24.38.117.6)  292.034 ms  295.181 ms  295.191 ms
 5  41333f95.cst.lightpath.net (65.51.63.149)  312.392 ms  312.380 ms  312.366 ms
 6  451be0a1.cst.lightpath.net (65.19.113.161)  295.136 ms  283.826 ms  291.062 ms
 7  64.15.3.229 (64.15.3.229)  293.446 ms 64.15.3.221 (64.15.3.221)  293.373 ms *
 8  64.15.2.94 (64.15.2.94)  293.378 ms 64.15.3.132 (64.15.3.132)  228.337 ms 64.15.2.94 (64.15.2.94)  228.225 ms
 9  64.15.0.196 (64.15.0.196)  231.525 ms  231.596 ms  231.449 ms
10  * * *
11  pos0-3-0-0.londra17.lon.seabone.net (195.22.216.167)  289.703 ms  289.688 ms  289.612 ms
12  149.3.183.33 (149.3.183.33)  286.937 ms  280.088 ms  279.998 ms
13  93.184.220.20 (93.184.220.20)  426.255 ms  519.679 ms  519.556 ms
traceroute to lemonde.fr (93.184.220.20), 30 hops max, 60 byte packets
 1  155.246.207.2 (155.246.207.2)  17.252 ms  17.272 ms  17.262 ms
 2  gwa.cc.stevens.edu (155.246.151.37)  17.253 ms  17.246 ms  17.239 ms
 3  454a0465.cst.lightpath.net (69.74.4.101)  185.766 ms  189.170 ms  189.196 ms
 4  18267506.cst.lightpath.net (24.38.117.6)  189.170 ms  189.173 ms  189.148 ms
 5  41333f95.cst.lightpath.net (65.51.63.149)  192.158 ms  189.128 ms  189.141 ms
 6  451be0a1.cst.lightpath.net (65.19.113.161)  192.158 ms  171.095 ms  171.075 ms
 7  64.15.3.221 (64.15.3.221)  171.068 ms  171.056 ms 64.15.3.229 (64.15.3.229)  171.042 ms
 8  64.15.2.78 (64.15.2.78)  173.851 ms  151.779 ms 64.15.2.94 (64.15.2.94)  146.414 ms
 9  64.15.0.196 (64.15.0.196)  150.107 ms  150.095 ms  150.045 ms
10  * * *
11  pos0-3-0-0.londra17.lon.seabone.net (195.22.216.167)  221.425 ms  218.176 ms  221.631 ms
12  149.3.183.33 (149.3.183.33)  221.526 ms  221.558 ms  221.534 ms
13  93.184.220.20 (93.184.220.20)  494.523 ms  494.562 ms  546.579 ms
traceroute to lemonde.fr (93.184.220.20), 30 hops max, 60 byte packets
 1  155.246.207.2 (155.246.207.2)  3.083 ms  3.076 ms  3.066 ms
 2  gwa.cc.stevens.edu (155.246.151.37)  3.055 ms  3.046 ms  3.036 ms
 3  454a0465.cst.lightpath.net (69.74.4.101)  13.254 ms  13.255 ms  13.248 ms
 4  18267506.cst.lightpath.net (24.38.117.6)  13.155 ms  13.198 ms  13.192 ms
 5  41333f95.cst.lightpath.net (65.51.63.149)  13.186 ms  16.707 ms  16.721 ms
 6  451be0a1.cst.lightpath.net (65.19.113.161)  16.714 ms  15.850 ms  15.836 ms
 7  64.15.3.221 (64.15.3.221)  20.671 ms  20.615 ms 64.15.3.229 (64.15.3.229)  22.703 ms
 8  64.15.2.94 (64.15.2.94)  30.923 ms 64.15.2.74 (64.15.2.74)  44.796 ms  32.177 ms
 9  64.15.0.196 (64.15.0.196)  34.753 ms  34.613 ms  34.638 ms
10  * * *
11  pos0-3-0-0.londra17.lon.seabone.net (195.22.216.167)  92.614 ms  95.885 ms  95.871 ms
12  149.3.183.33 (149.3.183.33)  95.826 ms  95.789 ms  95.721 ms
13  93.184.220.20 (93.184.220.20)  329.493 ms  329.436 ms  323.192 ms
traceroute to lemonde.fr (93.184.220.20), 30 hops max, 60 byte packets
 1  155.246.207.2 (155.246.207.2)  3.149 ms  3.159 ms  3.149 ms
 2  gwa.cc.stevens.edu (155.246.151.37)  3.135 ms  3.127 ms  3.117 ms
 3  454a0465.cst.lightpath.net (69.74.4.101)  275.922 ms  275.931 ms  278.828 ms
 4  18267506.cst.lightpath.net (24.38.117.6)  278.788 ms  278.798 ms  278.787 ms
 5  41333f95.cst.lightpath.net (65.51.63.149)  278.777 ms  278.768 ms  278.757 ms
 6  451be0a1.cst.lightpath.net (65.19.113.161)  278.766 ms  270.600 ms  270.578 ms
 7  64.15.3.221 (64.15.3.221)  272.815 ms 64.15.3.225 (64.15.3.225)  270.553 ms 64.15.3.221 (64.15.3.221)  272.799 ms
 8  64.15.2.74 (64.15.2.74)  272.767 ms 64.15.2.94 (64.15.2.94)  310.564 ms 64.15.2.78 (64.15.2.78)  310.550 ms
 9  64.15.0.196 (64.15.0.196)  328.944 ms  328.959 ms  328.925 ms
10  * * *
11  pos0-3-0-0.londra17.lon.seabone.net (195.22.216.167)  396.691 ms  396.701 ms  410.423 ms
12  149.3.183.33 (149.3.183.33)  410.338 ms  410.359 ms  410.334 ms
13  93.184.220.20 (93.184.220.20)  542.535 ms  542.472 ms  511.515 ms
traceroute to lemonde.fr (93.184.220.20), 30 hops max, 60 byte packets
 1  155.246.207.2 (155.246.207.2)  3.102 ms  3.077 ms  3.064 ms
 2  gwa.cc.stevens.edu (155.246.151.37)  3.051 ms  3.039 ms  3.037 ms
 3  454a0465.cst.lightpath.net (69.74.4.101)  312.472 ms  312.468 ms  312.459 ms
 4  18267506.cst.lightpath.net (24.38.117.6)  312.365 ms  312.389 ms  312.379 ms
 5  41333f95.cst.lightpath.net (65.51.63.149)  312.373 ms  314.678 ms  314.638 ms
 6  451be0a1.cst.lightpath.net (65.19.113.161)  314.639 ms  294.218 ms  293.697 ms
 7  64.15.3.229 (64.15.3.229)  293.662 ms 64.15.3.225 (64.15.3.225)  293.649 ms 64.15.3.229 (64.15.3.229)  293.621 ms
 8  64.15.2.78 (64.15.2.78)  296.253 ms 64.15.2.46 (64.15.2.46)  293.011 ms 64.15.2.74 (64.15.2.74)  295.277 ms
 9  64.15.0.196 (64.15.0.196)  299.993 ms  300.006 ms  300.003 ms
10  * * *
11  pos0-3-0-0.londra17.lon.seabone.net (195.22.216.167)  370.487 ms  370.432 ms  360.406 ms
12  149.3.183.33 (149.3.183.33)  360.418 ms  360.419 ms  362.831 ms
13  93.184.220.20 (93.184.220.20)  571.651 ms  571.687 ms  595.384 ms
traceroute to lemonde.fr (93.184.220.20), 30 hops max, 60 byte packets
 1  155.246.207.2 (155.246.207.2)  3.012 ms  2.985 ms  2.973 ms
 2  gwa.cc.stevens.edu (155.246.151.37)  2.962 ms  2.951 ms  2.940 ms
 3  454a0465.cst.lightpath.net (69.74.4.101)  379.452 ms  379.482 ms  379.476 ms
 4  18267506.cst.lightpath.net (24.38.117.6)  379.464 ms  379.454 ms  379.444 ms
 5  41333f95.cst.lightpath.net (65.51.63.149)  382.933 ms  382.932 ms  382.921 ms
 6  451be0a1.cst.lightpath.net (65.19.113.161)  382.935 ms  379.702 ms  376.420 ms
 7  64.15.3.225 (64.15.3.225)  379.730 ms  379.739 ms 64.15.3.221 (64.15.3.221)  379.629 ms
 8  64.15.3.132 (64.15.3.132)  382.129 ms 64.15.2.94 (64.15.2.94)  362.704 ms 64.15.3.132 (64.15.3.132)  366.476 ms
 9  64.15.0.196 (64.15.0.196)  355.386 ms  355.329 ms  357.073 ms
10  * * *
11  pos0-3-0-0.londra17.lon.seabone.net (195.22.216.167)  425.943 ms  425.984 ms  426.949 ms
12  149.3.183.33 (149.3.183.33)  429.342 ms  420.892 ms  420.840 ms
13  93.184.220.20 (93.184.220.20)  651.808 ms  651.809 ms  660.095 ms
traceroute to lemonde.fr (93.184.220.20), 30 hops max, 60 byte packets
 1  155.246.207.2 (155.246.207.2)  3.091 ms  3.080 ms  3.067 ms
 2  gwa.cc.stevens.edu (155.246.151.37)  3.058 ms  3.047 ms  5.515 ms
 3  454a0465.cst.lightpath.net (69.74.4.101)  203.313 ms  203.323 ms  203.263 ms
 4  18267506.cst.lightpath.net (24.38.117.6)  203.098 ms  203.124 ms  203.114 ms
 5  41333f95.cst.lightpath.net (65.51.63.149)  203.106 ms  203.099 ms  203.090 ms
 6  451be0a1.cst.lightpath.net (65.19.113.161)  203.104 ms  187.622 ms  187.455 ms
 7  64.15.3.225 (64.15.3.225)  187.539 ms  187.543 ms 64.15.3.221 (64.15.3.221)  187.469 ms
 8  64.15.3.132 (64.15.3.132)  190.960 ms  204.391 ms 64.15.2.78 (64.15.2.78)  204.274 ms
 9  64.15.0.196 (64.15.0.196)  210.617 ms  210.551 ms  210.570 ms
10  * * *
11  pos0-3-0-0.londra17.lon.seabone.net (195.22.216.167)  269.337 ms  269.309 ms  269.288 ms
12  149.3.183.33 (149.3.183.33)  269.223 ms  269.203 ms  269.137 ms
13  93.184.220.20 (93.184.220.20)  543.114 ms  543.076 ms  545.883 ms
traceroute to lemonde.fr (93.184.220.20), 30 hops max, 60 byte packets
 1  155.246.207.2 (155.246.207.2)  3.048 ms  3.028 ms  3.015 ms
 2  gwa.cc.stevens.edu (155.246.151.37)  7.500 ms  9.362 ms  9.377 ms
 3  454a0465.cst.lightpath.net (69.74.4.101)  335.975 ms  335.998 ms  339.063 ms
 4  18267506.cst.lightpath.net (24.38.117.6)  339.079 ms  339.100 ms  339.091 ms
 5  41333f95.cst.lightpath.net (65.51.63.149)  339.187 ms  341.623 ms  345.757 ms
 6  451be0a1.cst.lightpath.net (65.19.113.161)  345.782 ms  352.051 ms  352.045 ms
 7  64.15.3.225 (64.15.3.225)  355.289 ms 64.15.3.229 (64.15.3.229)  393.048 ms  392.916 ms
 8  64.15.2.78 (64.15.2.78)  396.623 ms 64.15.2.74 (64.15.2.74)  334.427 ms 64.15.3.132 (64.15.3.132)  334.417 ms
 9  64.15.0.196 (64.15.0.196)  334.640 ms  334.520 ms  334.528 ms
10  * * *
11  pos0-3-0-0.londra17.lon.seabone.net (195.22.216.167)  407.593 ms  407.581 ms  404.358 ms
12  149.3.183.33 (149.3.183.33)  404.382 ms  397.002 ms  416.764 ms
13  93.184.220.20 (93.184.220.20)  633.177 ms  632.698 ms  656.489 ms
traceroute to lemonde.fr (93.184.220.20), 30 hops max, 60 byte packets
 1  155.246.207.2 (155.246.207.2)  1.325 ms  3.110 ms  3.115 ms
 2  gwa.cc.stevens.edu (155.246.151.37)  6.066 ms  6.068 ms  6.062 ms
 3  454a0465.cst.lightpath.net (69.74.4.101)  393.488 ms  393.543 ms  393.540 ms
 4  18267506.cst.lightpath.net (24.38.117.6)  393.486 ms  393.480 ms  393.475 ms
 5  41333f95.cst.lightpath.net (65.51.63.149)  393.489 ms  393.459 ms  393.461 ms
 6  451be0a1.cst.lightpath.net (65.19.113.161)  393.451 ms  390.274 ms  389.367 ms
 7  64.15.3.221 (64.15.3.221)  392.131 ms 64.15.3.225 (64.15.3.225)  392.138 ms 64.15.3.221 (64.15.3.221)  392.112 ms
 8  64.15.2.74 (64.15.2.74)  394.341 ms  395.401 ms 64.15.3.132 (64.15.3.132)  395.388 ms
 9  64.15.0.196 (64.15.0.196)  398.866 ms  398.906 ms  398.853 ms
10  * * *
11  * * *
12  149.3.183.33 (149.3.183.33)  466.913 ms  466.857 ms  466.817 ms
13  93.184.220.20 (93.184.220.20)  476.907 ms  476.842 ms  356.950 ms
traceroute to lemonde.fr (93.184.220.20), 30 hops max, 60 byte packets
 1  155.246.207.2 (155.246.207.2)  3.026 ms  2.986 ms  2.958 ms
 2  gwa.cc.stevens.edu (155.246.151.37)  2.916 ms  2.886 ms  2.855 ms
 3  454a0465.cst.lightpath.net (69.74.4.101)  233.672 ms  233.684 ms  233.660 ms
 4  18267506.cst.lightpath.net (24.38.117.6)  330.077 ms  330.084 ms  330.057 ms
 5  41333f95.cst.lightpath.net (65.51.63.149)  237.109 ms  237.083 ms  237.015 ms
 6  451be0a1.cst.lightpath.net (65.19.113.161)  237.015 ms  234.918 ms  234.797 ms
 7  64.15.3.221 (64.15.3.221)  234.826 ms 64.15.3.225 (64.15.3.225)  234.824 ms 64.15.3.221 (64.15.3.221)  234.798 ms
 8  64.15.2.46 (64.15.2.46)  237.097 ms 64.15.2.94 (64.15.2.94)  153.472 ms 64.15.2.78 (64.15.2.78)  153.468 ms
 9  64.15.0.196 (64.15.0.196)  157.148 ms  159.971 ms  159.907 ms
10  * * *
11  pos0-3-0-0.londra17.lon.seabone.net (195.22.216.167)  233.714 ms  230.597 ms  230.609 ms
12  149.3.183.33 (149.3.183.33)  230.600 ms  231.506 ms  232.745 ms
13  93.184.220.20 (93.184.220.20)  541.252 ms  541.184 ms  540.494 ms
traceroute to lemonde.fr (93.184.220.20), 30 hops max, 60 byte packets
 1  155.246.207.2 (155.246.207.2)  3.104 ms  3.075 ms  5.742 ms
 2  gwa.cc.stevens.edu (155.246.151.37)  5.747 ms  5.733 ms  5.715 ms
 3  454a0465.cst.lightpath.net (69.74.4.101)  116.402 ms  116.428 ms  116.415 ms
 4  18267506.cst.lightpath.net (24.38.117.6)  308.711 ms  308.745 ms  308.733 ms
 5  41333f95.cst.lightpath.net (65.51.63.149)  119.569 ms  119.566 ms  119.555 ms
 6  451be0a1.cst.lightpath.net (65.19.113.161)  116.261 ms  112.030 ms  111.984 ms
 7  64.15.3.225 (64.15.3.225)  108.704 ms 64.15.3.229 (64.15.3.229)  108.627 ms  108.605 ms
 8  64.15.3.132 (64.15.3.132)  111.702 ms 64.15.2.74 (64.15.2.74)  144.140 ms 64.15.2.78 (64.15.2.78)  146.537 ms
 9  64.15.0.196 (64.15.0.196)  150.262 ms  150.141 ms  150.161 ms
10  * * *
11  pos0-3-0-0.londra17.lon.seabone.net (195.22.216.167)  223.804 ms  223.776 ms  223.725 ms
12  149.3.183.33 (149.3.183.33)  226.984 ms  230.974 ms  225.620 ms
13  93.184.220.20 (93.184.220.20)  468.302 ms  467.861 ms  467.824 ms
traceroute to lemonde.fr (93.184.220.20), 30 hops max, 60 byte packets
 1  155.246.207.2 (155.246.207.2)  2.983 ms  2.970 ms  2.958 ms
 2  gwa.cc.stevens.edu (155.246.151.37)  2.949 ms  2.941 ms  5.653 ms
 3  454a0465.cst.lightpath.net (69.74.4.101)  228.517 ms  228.518 ms  228.517 ms
 4  18267506.cst.lightpath.net (24.38.117.6)  228.405 ms  228.455 ms  228.452 ms
 5  41333f95.cst.lightpath.net (65.51.63.149)  228.464 ms  228.437 ms  228.440 ms
 6  451be0a1.cst.lightpath.net (65.19.113.161)  231.234 ms  236.984 ms  228.376 ms
 7  64.15.3.221 (64.15.3.221)  230.912 ms 64.15.3.225 (64.15.3.225)  233.786 ms 64.15.3.229 (64.15.3.229)  233.775 ms
 8  64.15.2.74 (64.15.2.74)  233.793 ms  228.172 ms 64.15.2.94 (64.15.2.94)  228.084 ms
 9  64.15.0.196 (64.15.0.196)  232.048 ms  232.019 ms  231.972 ms
10  * * *
11  pos0-3-0-0.londra17.lon.seabone.net (195.22.216.167)  299.668 ms  303.217 ms  307.363 ms
12  149.3.183.33 (149.3.183.33)  307.309 ms  307.264 ms  307.198 ms
13  93.184.220.20 (93.184.220.20)  511.489 ms  511.408 ms  459.549 ms
traceroute to lemonde.fr (93.184.220.20), 30 hops max, 60 byte packets
 1  155.246.207.2 (155.246.207.2)  2.929 ms  2.916 ms  2.908 ms
 2  gwa.cc.stevens.edu (155.246.151.37)  2.899 ms  2.890 ms  2.913 ms
 3  454a0465.cst.lightpath.net (69.74.4.101)  143.196 ms  143.189 ms  143.180 ms
 4  18267506.cst.lightpath.net (24.38.117.6)  143.138 ms  143.162 ms  144.375 ms
 5  41333f95.cst.lightpath.net (65.51.63.149)  146.884 ms  146.885 ms  146.869 ms
 6  451be0a1.cst.lightpath.net (65.19.113.161)  146.864 ms  159.977 ms  147.622 ms
 7  64.15.3.229 (64.15.3.229)  147.580 ms  147.555 ms  147.564 ms
 8  64.15.2.74 (64.15.2.74)  149.993 ms 64.15.3.132 (64.15.3.132)  123.497 ms 64.15.2.94 (64.15.2.94)  123.436 ms
 9  64.15.0.196 (64.15.0.196)  120.231 ms  120.221 ms  120.197 ms
10  * * *
11  pos0-3-0-0.londra17.lon.seabone.net (195.22.216.167)  191.331 ms  191.344 ms  184.824 ms
12  149.3.183.33 (149.3.183.33)  203.702 ms  201.177 ms  201.131 ms
13  93.184.220.20 (93.184.220.20)  557.741 ms  554.774 ms  513.107 ms
traceroute to lemonde.fr (93.184.220.20), 30 hops max, 60 byte packets
 1  155.246.207.2 (155.246.207.2)  3.007 ms  2.992 ms  2.985 ms
 2  gwa.cc.stevens.edu (155.246.151.37)  2.980 ms  2.976 ms  2.971 ms
 3  454a0465.cst.lightpath.net (69.74.4.101)  355.320 ms  355.322 ms  355.321 ms
 4  18267506.cst.lightpath.net (24.38.117.6)  355.274 ms  355.293 ms  355.292 ms
 5  41333f95.cst.lightpath.net (65.51.63.149)  361.249 ms  361.245 ms  361.219 ms
 6  451be0a1.cst.lightpath.net (65.19.113.161)  355.266 ms  341.947 ms  353.822 ms
 7  64.15.3.221 (64.15.3.221)  353.887 ms 64.15.3.229 (64.15.3.229)  353.865 ms  353.866 ms
 8  64.15.2.46 (64.15.2.46)  356.868 ms 64.15.2.74 (64.15.2.74)  254.847 ms  254.903 ms
 9  64.15.0.196 (64.15.0.196)  257.864 ms  257.849 ms  257.832 ms
10  * * *
11  pos0-3-0-0.londra17.lon.seabone.net (195.22.216.167)  320.618 ms  320.624 ms  320.618 ms
12  149.3.183.33 (149.3.183.33)  318.150 ms  318.122 ms  321.347 ms
13  93.184.220.20 (93.184.220.20)  601.680 ms  602.074 ms  594.905 ms
traceroute to lemonde.fr (93.184.220.20), 30 hops max, 60 byte packets
 1  155.246.207.2 (155.246.207.2)  3.062 ms  3.058 ms  3.056 ms
 2  gwa.cc.stevens.edu (155.246.151.37)  3.048 ms  3.042 ms  3.032 ms
 3  454a0465.cst.lightpath.net (69.74.4.101)  18.619 ms  18.640 ms  18.634 ms
 4  18267506.cst.lightpath.net (24.38.117.6)  18.625 ms  18.616 ms  18.606 ms
 5  41333f95.cst.lightpath.net (65.51.63.149)  20.852 ms  20.849 ms  20.792 ms
 6  451be0a1.cst.lightpath.net (65.19.113.161)  20.828 ms  16.346 ms  16.318 ms
 7  64.15.3.221 (64.15.3.221)  19.436 ms 64.15.3.225 (64.15.3.225)  19.463 ms 64.15.3.221 (64.15.3.221)  19.435 ms
 8  64.15.2.94 (64.15.2.94)  19.440 ms 64.15.2.74 (64.15.2.74)  13.095 ms  13.036 ms
 9  64.15.0.196 (64.15.0.196)  19.900 ms  33.965 ms  40.194 ms
10  * * *
11  pos0-3-0-0.londra17.lon.seabone.net (195.22.216.167)  111.752 ms  111.667 ms  111.638 ms
12  149.3.183.33 (149.3.183.33)  111.651 ms  108.034 ms  108.053 ms
13  93.184.220.20 (93.184.220.20)  480.057 ms  480.014 ms  476.797 ms
traceroute to lemonde.fr (93.184.220.20), 30 hops max, 60 byte packets
 1  155.246.207.2 (155.246.207.2)  2.998 ms  2.976 ms  2.979 ms
 2  gwa.cc.stevens.edu (155.246.151.37)  2.960 ms  5.582 ms  5.581 ms
 3  454a0465.cst.lightpath.net (69.74.4.101)  232.107 ms  232.146 ms  232.143 ms
 4  18267506.cst.lightpath.net (24.38.117.6)  232.140 ms  232.134 ms  232.128 ms
 5  41333f95.cst.lightpath.net (65.51.63.149)  235.879 ms  235.877 ms  235.820 ms
 6  451be0a1.cst.lightpath.net (65.19.113.161)  235.893 ms  229.571 ms  229.607 ms
 7  64.15.3.229 (64.15.3.229)  232.530 ms 64.15.3.225 (64.15.3.225)  249.898 ms 64.15.3.229 (64.15.3.229)  249.819 ms
 8  64.15.2.46 (64.15.2.46)  252.669 ms 64.15.2.78 (64.15.2.78)  342.838 ms  342.760 ms
 9  64.15.0.196 (64.15.0.196)  345.886 ms  345.870 ms  345.860 mstraceroute to lemonde.fr (93.184.220.20), 30 hops max, 60 byte packets
 1  155.246.207.2 (155.246.207.2)  3.044 ms  5.404 ms  5.400 ms
 2  gwa.cc.stevens.edu (155.246.151.37)  2.989 ms  2.980 ms  5.265 ms
 3  454a0465.cst.lightpath.net (69.74.4.101)  252.983 ms  255.919 ms  255.961 ms
 4  18267506.cst.lightpath.net (24.38.117.6)  255.913 ms  255.905 ms  255.914 ms
 5  41333f95.cst.lightpath.net (65.51.63.149)  259.280 ms  259.244 ms  259.250 ms
 6  451be0a1.cst.lightpath.net (65.19.113.161)  259.246 ms  257.606 ms  257.597 ms
 7  64.15.3.229 (64.15.3.229)  253.847 ms  257.560 ms  257.523 ms
 8  64.15.2.74 (64.15.2.74)  263.083 ms  219.759 ms 64.15.3.132 (64.15.3.132)  216.562 ms
 9  64.15.0.196 (64.15.0.196)  220.432 ms  220.375 ms  223.045 mstraceroute to lemonde.fr (93.184.220.20), 30 hops max, 60 byte packets
 1  155.246.207.2 (155.246.207.2)  2.957 ms  2.950 ms  2.939 ms
 2  gwa.cc.stevens.edu (155.246.151.37)  5.798 ms  5.797 ms  5.797 ms
 3  454a0465.cst.lightpath.net (69.74.4.101)  139.204 ms  142.269 ms  142.275 ms
 4  18267506.cst.lightpath.net (24.38.117.6)  142.254 ms  142.247 ms  142.236 ms
 5  41333f95.cst.lightpath.net (65.51.63.149)  142.241 ms  142.231 ms  142.219 ms
 6  451be0a1.cst.lightpath.net (65.19.113.161)  145.187 ms  133.434 ms  133.364 ms
 7  64.15.3.221 (64.15.3.221)  133.367 ms 64.15.3.229 (64.15.3.229)  129.927 ms 64.15.3.225 (64.15.3.225)  133.449 ms
 8  64.15.2.46 (64.15.2.46)  133.402 ms 64.15.2.78 (64.15.2.78)  205.116 ms 64.15.2.94 (64.15.2.94)  212.072 ms
 9  64.15.0.196 (64.15.0.196)  218.866 ms  215.579 ms  218.884 ms
